# This file uses centimeters as units for non-parametric coordinates.

mtllib Flag.mtl
g default
v -7.861729 1.080671 -0.013373
v -7.864142 1.085353 -0.008198
v -7.867410 1.085353 -0.013959
v -7.852040 1.085541 -0.011596
v -7.858076 1.085595 -0.008198
v -7.856707 1.080671 -0.012843
v -7.867410 1.369559 -0.013959
v -7.864334 1.369692 -0.008198
v -7.861729 1.374242 -0.013373
v -7.856707 1.374242 -0.012843
v -7.858032 1.369372 -0.008198
v -7.852040 1.369372 -0.011596
v -7.917879 1.374242 -0.524151
v -7.915914 1.369356 -0.528742
v -7.922382 1.369356 -0.526312
v -7.909658 1.369723 -0.522760
v -7.911311 1.370019 -0.528742
v -7.917527 1.374242 -0.523217
v -7.922382 1.085557 -0.526312
v -7.915862 1.085627 -0.528742
v -7.917879 1.080671 -0.524151
v -7.917527 1.080671 -0.523217
v -7.911906 1.085190 -0.528742
v -7.909658 1.085190 -0.522760
v -7.826210 1.374242 -0.076694
v -7.831189 1.369432 -0.076630
v -7.833717 1.369396 -0.070288
v -7.828398 1.374242 -0.069897
v -7.822844 1.374242 -0.069842
v -7.816919 1.369435 -0.070311
v -7.814406 1.369422 -0.076637
v -7.819317 1.374242 -0.076661
v -7.990164 1.080671 -0.460288
v -7.995274 1.085491 -0.460428
v -7.991339 1.085460 -0.465967
v -7.982652 1.080671 -0.467110
v -7.978485 1.085466 -0.460445
v -7.983913 1.080671 -0.460187
v -7.980498 1.080671 -0.466981
v -7.974496 1.085570 -0.466019
v -7.909035 1.374242 -0.264985
v -7.916294 1.374242 -0.271771
v -7.922161 1.369381 -0.270770
v -7.917181 1.369433 -0.266085
v -7.988200 1.374242 -0.336921
v -7.993340 1.369420 -0.336736
v -7.989365 1.369450 -0.331220
v -7.980860 1.374242 -0.330103
v -7.916298 1.080671 -0.271767
v -7.909134 1.080671 -0.265017
v -7.917181 1.085479 -0.266085
v -7.922161 1.085532 -0.270770
v -7.843327 1.080671 -0.197203
v -7.849071 1.085478 -0.197615
v -7.853180 1.085560 -0.203104
v -7.847369 1.080671 -0.203970
v -7.905351 1.085479 -0.270745
v -7.900355 1.085565 -0.266043
v -7.906132 1.080671 -0.265161
v -7.914041 1.080671 -0.271948
v -7.832277 1.085511 -0.197594
v -7.837504 1.080671 -0.197286
v -7.844319 1.080671 -0.204085
v -7.836351 1.085467 -0.203058
v -7.900374 1.369387 -0.266062
v -7.905346 1.369441 -0.270741
v -7.914041 1.374242 -0.271948
v -7.906132 1.374242 -0.265161
v -7.978481 1.374242 -0.330229
v -7.972549 1.369385 -0.331189
v -7.976549 1.369445 -0.336719
v -7.982000 1.374242 -0.336993
v -8.013580 1.374242 -0.395185
v -8.013716 1.374242 -0.402042
v -8.018970 1.369448 -0.402014
v -8.018881 1.369449 -0.395236
v -7.982652 1.374242 -0.467110
v -7.991331 1.369439 -0.465973
v -7.995276 1.369417 -0.460425
v -7.990164 1.374242 -0.460288
v -8.013746 1.080671 -0.402027
v -8.013550 1.080671 -0.395170
v -8.018881 1.085464 -0.395236
v -8.018970 1.085464 -0.402014
v -7.980860 1.080671 -0.330103
v -7.989359 1.085474 -0.331214
v -7.993341 1.085500 -0.336740
v -7.988200 1.080671 -0.336921
v -8.002184 1.085479 -0.402025
v -8.002095 1.085474 -0.395229
v -8.007341 1.080671 -0.395199
v -8.007393 1.080671 -0.402018
v -7.972527 1.085568 -0.331169
v -7.978474 1.080671 -0.330235
v -7.982000 1.080671 -0.336993
v -7.976549 1.085467 -0.336719
v -8.002094 1.369432 -0.395225
v -8.002186 1.369440 -0.402020
v -8.007393 1.374242 -0.402018
v -8.007341 1.374242 -0.395199
v -7.983853 1.374242 -0.460217
v -7.978488 1.369437 -0.460438
v -7.974496 1.369342 -0.466019
v -7.980498 1.374242 -0.466981
v -7.813312 1.374242 -0.134909
v -7.813882 1.374242 -0.141730
v -7.819222 1.369423 -0.141540
v -7.818299 1.369435 -0.134797
v -7.847369 1.374242 -0.203970
v -7.853162 1.369389 -0.203086
v -7.849075 1.369442 -0.197620
v -7.843327 1.374242 -0.197203
v -7.813889 1.080671 -0.141724
v -7.813314 1.080671 -0.134910
v -7.818299 1.085478 -0.134797
v -7.819222 1.085489 -0.141540
v -7.828398 1.080671 -0.069897
v -7.833711 1.085501 -0.070297
v -7.831190 1.085475 -0.076626
v -7.826210 1.080671 -0.076694
v -7.802432 1.085467 -0.141526
v -7.801513 1.085453 -0.134815
v -7.806433 1.080671 -0.134921
v -7.808037 1.080671 -0.141756
v -7.816916 1.085469 -0.070317
v -7.822848 1.080671 -0.069840
v -7.819317 1.080671 -0.076661
v -7.814406 1.085491 -0.076637
v -7.801516 1.369443 -0.134803
v -7.802425 1.369464 -0.141513
v -7.808037 1.374242 -0.141756
v -7.806433 1.374242 -0.134921
v -7.837512 1.374242 -0.197279
v -7.832283 1.369414 -0.197602
v -7.836351 1.369445 -0.203058
v -7.844319 1.374242 -0.204085
vt 0.464824 0.997515
vt 0.375000 0.997233
vt 0.510932 0.000000
vt 0.474990 0.003988
vt 0.625000 0.998368
vt 0.544385 0.997770
vt 0.625000 0.970167
vt 0.626632 0.004147
vt 0.375000 0.252766
vt 0.375000 0.279819
vt 0.472145 0.246126
vt 0.566024 0.245853
vt 0.625000 0.251634
vt 0.125000 0.250000
vt 0.151501 0.250000
vt 0.478851 0.497795
vt 0.429970 0.504161
vt 0.378520 0.746480
vt 0.872127 0.246152
vt 0.868822 0.250000
vt 0.843750 0.250000
vt 0.523163 0.503848
vt 0.125000 0.000000
vt 0.151501 0.000000
vt 0.430756 0.745779
vt 0.489677 0.746152
vt 0.625000 0.752873
vt 0.625000 0.780121
vt 0.457710 0.279632
vt 0.540924 0.279605
vt 0.331567 0.250000
vt 0.342134 0.245904
vt 0.345176 0.004114
vt 0.654831 0.245906
vt 0.654833 0.004086
vt 0.656250 0.250000
vt 0.657868 0.245896
vt 0.675368 0.250000
vt 0.451976 0.782876
vt 0.484909 0.779600
vt 0.519211 0.779662
vt 0.156250 0.000000
vt 0.157809 0.004105
vt 0.155146 0.245910
vt 0.842199 0.004083
vt 0.844876 0.004172
vt 0.844876 0.245828
vt 0.625000 0.782801
vt 0.254790 0.250000
vt 0.281250 0.250000
vt 0.478976 0.376585
vt 0.479689 0.373394
vt 0.525593 0.373475
vt 0.250000 0.250000
vt 0.248896 0.245861
vt 0.452756 0.407875
vt 0.483200 0.404600
vt 0.520737 0.404661
vt 0.218750 0.250000
vt 0.194918 0.250000
vt 0.217214 0.245894
vt 0.248896 0.004139
vt 0.219866 0.004091
vt 0.223535 0.000000
vt 0.478735 0.876575
vt 0.478851 0.873417
vt 0.254745 0.000000
vt 0.281250 0.000000
vt 0.457298 0.907979
vt 0.474688 0.904721
vt 0.288165 -0.000000
vt 0.282772 0.004094
vt 0.280128 0.245868
vt 0.515472 0.873330
vt 0.625000 0.844902
vt 0.748881 0.004168
vt 0.751092 0.004094
vt 0.625000 0.876130
vt 0.625000 0.905141
vt 0.521856 0.904668
vt 0.717217 0.004122
vt 0.719859 0.004084
vt 0.625000 0.907783
vt 0.750000 0.250000
vt 0.723469 0.250000
vt 0.719859 0.245915
vt 0.751091 0.245912
vt 0.781250 0.250000
vt 0.780122 0.245864
vt 0.780112 0.004170
vt 0.788742 0.250000
vt 0.782777 0.245916
vt 0.812500 0.250000
vt 0.453099 0.439150
vt 0.453636 0.435857
vt 0.546654 0.435863
vt 0.179682 0.250000
vt 0.157811 0.245891
vt 0.185864 0.245918
vt 0.185864 0.004082
vt 0.451977 0.467124
vt 0.546406 0.467090
vt 0.518902 0.470366
vt 0.453983 0.814151
vt 0.452754 0.810857
vt 0.547436 0.810862
vt 0.194951 0.000000
vt 0.218750 0.000000
vt 0.217212 0.004112
vt 0.452755 0.842125
vt 0.520752 0.845337
vt 0.810878 0.004091
vt 0.814141 0.004095
vt 0.810876 0.245904
vt 0.625000 0.814122
vt 0.625000 0.842223
vt 0.545582 0.842091
vt 0.814139 0.245911
vt 0.842196 0.245908
vt 0.835882 0.250000
vt 0.456043 0.314203
vt 0.448915 0.310855
vt 0.551353 0.310861
vt 0.312500 0.250000
vt 0.282769 0.245913
vt 0.310892 0.245897
vt 0.310892 0.004103
vt 0.457300 0.342021
vt 0.544532 0.342059
vt 0.521838 0.345332
vt 0.448889 0.939145
vt 0.455892 0.935800
vt 0.543332 0.935784
vt 0.312500 0.000000
vt 0.331567 0.000000
vt 0.342136 0.004091
vt 0.448956 0.967104
vt 0.540895 0.970395
vt 0.685810 0.004073
vt 0.689100 0.004085
vt 0.685803 0.245913
vt 0.624998 0.939190
vt 0.624995 0.967131
vt 0.551750 0.967120
vt 0.689094 0.245932
vt 0.717221 0.245889
vt 0.718750 0.250000
vt 0.565360 0.004194
vt 0.464828 0.252484
vt 0.544403 0.252228
vt 0.498550 0.503596
vt 0.457707 0.970368
vt 0.372234 0.003988
vt 0.372234 0.246012
vt 0.345181 0.245874
vt 0.219863 0.245920
vt 0.482910 0.845428
vt 0.515463 0.376670
vt 0.545712 0.782925
vt 0.547433 0.439139
vt 0.126168 0.004161
vt 0.155149 0.004078
vt 0.126168 0.245839
vt 0.478855 0.752205
vt 0.500005 0.752654
vt 0.872127 0.003848
vt 0.485000 0.470427
vt 0.189118 0.004082
vt 0.189118 0.245918
vt 0.546658 0.814137
vt 0.782777 0.004084
vt 0.545579 0.407909
vt 0.544694 0.907938
vt 0.543332 0.314216
vt 0.314199 0.004093
vt 0.314199 0.245907
vt 0.551352 0.939139
vt 0.657868 0.004104
vt 0.551750 0.282880
vt 0.251099 0.004095
vt 0.280120 0.004164
vt 0.251099 0.245905
vt 0.525315 0.876547
vt 0.748890 0.245866
vt 0.474680 0.345279
vt 0.585761 -0.000000
vt 0.626632 0.245853
vt 0.375000 0.503570
vt 0.500000 0.497346
vt 0.523163 0.746152
vt 0.448956 0.282896
vt 0.375000 0.281250
vt 0.624999 0.279831
vt 0.607019 0.281250
vt 0.156250 0.000000
vt 0.625000 0.781250
vt 0.250000 0.250000
vt 0.220364 0.250000
vt 0.223535 0.250000
vt 0.250000 0.000000
vt 0.250000 0.000000
vt 0.284359 -0.000000
vt 0.624996 0.873908
vt 0.621665 0.875000
vt 0.598991 0.906250
vt 0.754844 0.250000
vt 0.751427 0.250000
vt 0.781250 0.250000
vt 0.179543 0.250000
vt 0.156250 0.250000
vt 0.156250 0.250000
vt 0.179717 -0.000000
vt 0.179507 0.000000
vt 0.220364 -0.000000
vt 0.624990 0.810858
vt 0.625000 0.809358
vt 0.625000 0.843750
vt 0.812500 0.250000
vt 0.839851 0.250000
vt 0.312500 0.250000
vt 0.284359 0.250000
vt 0.288165 0.250000
vt 0.312500 0.000000
vt 0.375000 0.970178
vt 0.375000 0.968750
vt 0.625000 0.935900
vt 0.587587 0.937500
vt 0.607018 0.968750
vt 0.694362 0.250000
vt 0.692844 0.250000
vt 0.718750 0.250000
vn -0.593762 -0.722787 -0.353588
vn -0.593762 -0.722787 -0.353588
vn -0.594004 -0.722778 -0.353201
vn -0.648212 -0.716178 -0.258669
vn -0.017603 -0.718031 0.695788
vn -0.017603 -0.718031 0.695788
vn 0.458270 -0.649710 0.606520
vn -0.001398 -0.714827 0.699300
vn -0.875986 -0.000295 0.482337
vn -0.875986 -0.000295 0.482337
vn -0.875986 -0.000295 0.482337
vn -0.875986 -0.000295 0.482337
vn 0.612502 -0.700617 0.366028
vn 0.612733 -0.700710 0.365464
vn 0.636520 -0.707852 0.306247
vn 0.267618 -0.000021 0.963525
vn 0.833763 -0.000004 0.552122
vn 0.833755 -0.000004 0.552134
vn 0.268408 -0.000021 0.963305
vn -0.594219 0.722233 -0.353954
vn -0.594219 0.722233 -0.353954
vn -0.648872 0.715613 -0.258577
vn -0.594462 0.722224 -0.353565
vn -0.011817 0.723922 0.689781
vn -0.011817 0.723922 0.689781
vn 0.004480 0.720623 0.693312
vn 0.460287 0.652300 0.602196
vn 0.612854 0.700227 0.366185
vn 0.636850 0.707357 0.306706
vn 0.613080 0.700318 0.365633
vn -0.354329 0.651946 -0.670386
vn -0.471605 0.698602 -0.538092
vn -0.518030 0.700525 -0.490826
vn -0.471799 0.698663 -0.537844
vn 0.007012 0.746253 -0.665626
vn 0.023413 0.752319 -0.658383
vn 0.023413 0.752319 -0.658383
vn -0.639592 -0.000001 -0.768715
vn -0.219821 -0.000020 -0.975540
vn -0.219273 -0.000020 -0.975663
vn -0.639599 -0.000001 -0.768709
vn 0.447452 0.735553 0.508673
vn 0.447452 0.735553 0.508673
vn 0.570378 0.728599 0.379226
vn 0.447745 0.735564 0.508399
vn 0.950758 -0.000995 -0.309931
vn 0.950758 -0.000995 -0.309931
vn 0.950758 -0.000995 -0.309931
vn 0.950758 -0.000995 -0.309931
vn -0.471245 -0.699085 -0.537781
vn -0.350756 -0.649728 -0.674406
vn -0.471445 -0.699149 -0.537523
vn -0.517626 -0.701435 -0.489952
vn 0.045348 -0.746064 -0.664328
vn 0.065721 -0.752575 -0.655219
vn 0.065721 -0.752575 -0.655219
vn 0.447452 -0.735554 0.508673
vn 0.447451 -0.735554 0.508673
vn 0.447742 -0.735566 0.508399
vn 0.568999 -0.729572 0.379428
vn 0.000000 1.000000 0.000000
vn 0.000000 1.000000 0.000000
vn 0.000000 1.000000 0.000000
vn 0.000000 1.000000 0.000000
vn -0.669429 0.712432 -0.210489
vn -0.687576 0.709867 -0.152733
vn -0.688805 0.717675 -0.102420
vn -0.688420 0.713685 -0.129346
vn -0.865793 -0.000001 -0.500402
vn -0.972617 -0.000001 -0.232414
vn -0.972616 -0.000001 -0.232418
vn -0.865798 -0.000001 -0.500393
vn 0.972646 0.000001 0.232294
vn 0.865548 0.000000 0.500826
vn 0.865550 0.000000 0.500822
vn 0.972645 0.000001 0.232295
vn 0.657371 0.709794 0.253093
vn 0.689948 0.707404 0.153466
vn 0.690506 0.714805 0.110699
vn 0.690519 0.712631 0.123856
vn 0.000000 -1.000000 0.000000
vn 0.000000 -1.000000 0.000000
vn 0.000000 -1.000000 0.000000
vn 0.000000 -1.000000 0.000000
vn -0.654550 -0.707596 -0.266218
vn -0.551669 -0.706212 -0.443764
vn -0.658158 -0.712170 -0.244217
vn -0.671589 -0.733768 -0.102724
vn -0.670554 0.000001 -0.741861
vn -0.917964 -0.000001 -0.396663
vn -0.917968 -0.000001 -0.396655
vn -0.670540 0.000001 -0.741873
vn 0.917788 0.000000 0.397071
vn 0.671179 -0.000000 0.741296
vn 0.671178 -0.000000 0.741296
vn 0.917791 0.000000 0.397063
vn 0.649956 -0.712854 0.263434
vn 0.605618 -0.723248 0.331873
vn 0.653439 -0.716047 0.245549
vn 0.672397 -0.733593 0.098603
vn -0.497185 0.706134 0.504165
vn -0.489472 0.702921 0.516061
vn -0.497364 0.706170 0.503937
vn -0.567714 0.715131 0.407785
vn 0.000000 1.000000 0.000000
vn 0.000000 1.000000 0.000000
vn 0.000000 1.000000 0.000000
vn 0.000000 1.000000 0.000000
vn -0.476180 0.702725 0.528612
vn -0.486283 0.702492 0.519648
vn -0.476221 0.702725 0.528574
vn -0.520476 0.701196 0.487268
vn -0.700268 -0.000001 0.713880
vn -0.669925 -0.000000 0.742429
vn -0.669925 -0.000000 0.742429
vn -0.700268 -0.000001 0.713880
vn 0.000000 1.000000 0.000000
vn 0.000000 1.000000 0.000000
vn 0.000000 1.000000 0.000000
vn 0.000000 1.000000 0.000000
vn -0.647500 0.707450 0.283299
vn -0.551545 0.704930 0.445950
vn -0.649546 0.709530 0.273236
vn -0.670409 0.736440 0.090593
vn -0.679754 -0.000001 0.733440
vn -0.908110 -0.000002 0.418731
vn -0.908112 -0.000002 0.418727
vn -0.679744 -0.000001 0.733449
vn -0.487907 -0.701557 0.519388
vn -0.476648 -0.702098 0.529022
vn -0.520999 -0.700321 0.487966
vn -0.476688 -0.702098 0.528986
vn 0.000000 -1.000000 0.000000
vn 0.000000 -1.000000 0.000000
vn 0.000000 -1.000000 0.000000
vn 0.000000 -1.000000 0.000000
vn -0.491381 -0.701625 0.516011
vn -0.499227 -0.702865 0.506708
vn -0.569450 -0.713665 0.407932
vn -0.499405 -0.702903 0.506480
vn 0.000000 -1.000000 0.000000
vn 0.000000 -1.000000 0.000000
vn 0.000000 -1.000000 0.000000
vn 0.000000 -1.000000 0.000000
vn -0.591373 -0.713886 0.375027
vn -0.622728 -0.708870 0.331230
vn -0.671332 -0.729993 0.128156
vn -0.623496 -0.709244 0.328978
vn -0.708961 -0.000001 0.705247
vn -0.875656 0.000000 0.482936
vn -0.875651 0.000000 0.482945
vn -0.708980 -0.000001 0.705229
vn 0.478930 -0.697814 -0.532618
vn 0.475972 -0.703164 -0.528215
vn 0.573015 -0.720431 -0.390683
vn 0.476199 -0.703232 -0.527920
vn 0.700287 -0.000000 -0.713861
vn 0.669929 -0.000000 -0.742425
vn 0.669930 -0.000000 -0.742424
vn 0.700284 -0.000000 -0.713864
vn 0.482868 -0.697911 -0.528923
vn 0.499987 -0.701608 -0.507700
vn 0.531356 -0.699259 -0.478224
vn 0.500073 -0.701613 -0.507608
vn 0.875758 0.000001 -0.482751
vn 0.709018 -0.000000 -0.705191
vn 0.709018 -0.000000 -0.705190
vn 0.875753 0.000001 -0.482759
vn 0.552610 -0.701361 -0.450239
vn 0.625268 -0.705730 -0.333144
vn 0.663863 -0.729320 -0.165463
vn 0.625809 -0.705943 -0.331675
vn 0.499037 0.703138 -0.506518
vn 0.481340 0.699017 -0.528854
vn 0.499124 0.703142 -0.506424
vn 0.530634 0.700163 -0.477702
vn 0.474606 0.705324 -0.526562
vn 0.477316 0.698965 -0.532557
vn 0.474833 0.705391 -0.526267
vn 0.571408 0.721736 -0.390628
vn 0.907989 0.000002 -0.418994
vn 0.679706 0.000001 -0.733485
vn 0.679675 0.000001 -0.733514
vn 0.907992 0.000002 -0.418987
vn 0.644590 0.710850 -0.281418
vn 0.602284 0.720803 -0.343070
vn 0.647034 0.712924 -0.270344
vn 0.672376 0.734342 -0.093022
vn 0.000000 1.000000 0.000000
vn 0.000000 1.000000 0.000000
vn 0.000000 1.000000 0.000000
vn 0.000000 1.000000 0.000000
vn -0.671195 0.733921 -0.104196
vn -0.657351 0.712437 -0.245607
vn -0.551910 0.705575 -0.444475
vn -0.653967 0.708263 -0.265879
vn -0.930823 -0.000001 0.365469
vn -0.940257 -0.000001 -0.340464
vn -0.940257 -0.000001 -0.340465
vn -0.930824 -0.000001 0.365469
vn 0.000000 1.000000 0.000000
vn 0.000000 1.000000 0.000000
vn 0.000000 1.000000 0.000000
vn 0.000000 1.000000 0.000000
vn 0.000000 -1.000000 0.000000
vn 0.000000 -1.000000 0.000000
vn 0.000000 -1.000000 0.000000
vn 0.000000 -1.000000 0.000000
vn -0.670161 -0.736427 0.092512
vn -0.648813 -0.709671 0.274607
vn -0.551908 -0.704297 0.446500
vn -0.647055 -0.707967 0.283025
vn 0.000000 -1.000000 0.000000
vn 0.000000 -1.000000 0.000000
vn 0.000000 -1.000000 0.000000
vn 0.000000 -1.000000 0.000000
vn 0.930833 0.000001 -0.365445
vn 0.940292 0.000001 0.340368
vn 0.940270 0.000001 0.340429
vn 0.930857 0.000001 -0.365385
vn 0.672279 -0.734392 -0.093329
vn 0.646839 -0.713187 -0.270119
vn 0.603519 -0.719916 -0.342762
vn 0.644373 -0.711102 -0.281279
vn 0.673043 0.732940 0.099057
vn 0.654941 0.714449 0.246200
vn 0.607396 0.721875 0.331612
vn 0.651532 0.711118 0.264228
vn 0.000000 1.000000 0.000000
vn 0.000000 1.000000 0.000000
vn 0.000000 1.000000 0.000000
vn 0.000000 1.000000 0.000000
vn -0.622925 0.709837 0.328779
vn -0.670973 0.730374 0.127866
vn -0.622152 0.709467 0.331035
vn -0.589987 0.714896 0.375285
vn -0.983423 -0.000001 -0.181328
vn -0.898042 -0.000001 0.439909
vn -0.898042 -0.000001 0.439909
vn -0.983423 -0.000001 -0.181328
vn 0.000000 1.000000 0.000000
vn 0.000000 1.000000 0.000000
vn 0.000000 1.000000 0.000000
vn 0.000000 1.000000 0.000000
vn 0.000000 -1.000000 0.000000
vn 0.000000 -1.000000 0.000000
vn 0.000000 -1.000000 0.000000
vn 0.000000 -1.000000 0.000000
vn -0.688352 -0.713756 -0.129322
vn -0.688788 -0.717652 -0.102694
vn -0.687459 -0.709982 -0.152726
vn -0.668928 -0.712873 -0.210588
vn 0.000000 -1.000000 0.000000
vn 0.000000 -1.000000 0.000000
vn 0.000000 -1.000000 0.000000
vn 0.000000 -1.000000 0.000000
vn 0.983384 0.000001 0.181539
vn 0.898003 0.000001 -0.439990
vn 0.897998 0.000001 -0.439999
vn 0.983392 0.000001 0.181497
vn 0.689994 -0.713193 0.123545
vn 0.690021 -0.715304 0.110499
vn 0.689329 -0.708015 0.153429
vn 0.656940 -0.710325 0.252722
vn 0.624494 0.707389 -0.331070
vn 0.663749 0.729903 -0.163338
vn 0.623946 0.707179 -0.332548
vn 0.551778 0.702277 -0.449831
vn 0.000003 0.000000 1.000000
vn 0.000003 0.000000 1.000000
vn 0.000000 1.000000 0.000000
vn 0.000000 1.000000 0.000000
vn 0.000000 0.000000 -1.000000
vn 0.000000 0.000000 -1.000000
vn 0.000000 -1.000000 0.000000
vn 0.000000 -1.000000 0.000000
vn -0.858192 -0.000000 -0.513328
vn -0.858193 -0.000000 -0.513328
vn 0.000000 -1.000000 0.000000
vn 0.000000 -1.000000 0.000000
vn 0.658554 0.000000 0.752533
vn 0.658554 0.000000 0.752533
vn 0.000000 1.000000 0.000000
vn 0.000000 1.000000 0.000000
vn -0.617081 -0.704761 0.350033
vn -0.617081 -0.704761 0.350033
vn -0.617081 -0.704761 0.350033
vn -0.622689 0.715826 0.315992
vn -0.622689 0.715826 0.315992
vn -0.622689 0.715826 0.315992
vn 0.499929 0.860795 -0.095411
vn 0.499929 0.860795 -0.095411
vn 0.499929 0.860795 -0.095411
vn 0.497404 -0.847148 -0.186896
vn 0.497404 -0.847148 -0.186896
vn 0.497404 -0.847148 -0.186896
s 1
g pCube22
usemtl initialShadingGroup
f 1/1/1 3/2/2 118/224/3 117/152/4
s 2
f 2/4/5 1/3/6 6/186/7 5/148/8
s off
f 3/153/9 2/4/10 8/11/11 7/154/12
s 2
f 4/5/13 6/6/7 126/138/14 125/7/15
s 3
f 5/148/16 4/8/17 12/187/18 11/12/19
s 4
f 7/9/20 9/149/21 28/29/22 27/10/23
s 5
f 9/149/24 8/11/25 11/12/26 10/150/27
f 10/150/27 12/13/28 30/193/29 29/30/30
s 4
f 13/14/31 15/163/32 78/44/33 77/15/34
f 14/17/35 13/16/31 18/189/36 17/151/37
s 7
f 15/188/38 14/17/39 20/25/40 19/18/41
s 5
f 16/19/42 18/20/43 104/21/44 103/47/45
s off
f 17/151/46 16/22/47 24/190/48 23/26/49
s 1
f 19/161/50 21/23/51 36/24/52 35/162/53
f 21/164/51 20/25/54 23/26/55 22/165/56
s 2
f 22/165/57 24/27/58 40/28/59 39/41/60
s 11
f 25/191/61 28/29/62 29/30/63 32/179/64
s 4
f 26/32/65 25/31/66 105/220/67 108/176/68
s 7
f 27/155/69 26/32/70 119/136/71 118/33/72
s 3
f 31/37/73 30/34/74 125/35/75 128/178/76
s 5
f 32/36/77 31/37/78 129/141/79 132/38/80
s 13
f 33/39/81 36/40/82 39/41/83 38/159/84
s 1
f 34/43/85 33/42/86 81/212/87 84/100/88
s 7
f 35/162/89 34/43/90 79/98/91 78/44/92
s 3
f 37/45/93 40/46/94 103/47/95 102/119/96
s 2
f 38/159/97 37/48/98 89/215/99 92/106/100
s 4
f 41/49/101 44/182/102 110/73/103 109/50/104
s 11
f 42/51/105 41/52/106 68/53/107 67/158/108
s 4
f 43/55/109 42/54/110 48/199/111 47/156/112
s 7
f 44/182/113 43/55/114 52/62/115 51/180/116
s 11
f 45/56/117 48/57/118 69/58/119 72/172/120
s 4
f 46/61/121 45/59/122 73/60/123 76/169/124
s 7
f 47/156/125 46/61/126 87/109/127 86/63/128
s 1
f 49/200/129 52/62/130 86/63/131 85/64/132
s 13
f 50/65/133 49/66/134 60/74/135 59/183/136
s 1
f 51/180/137 50/67/138 56/68/139 55/181/140
s 13
f 53/69/141 56/70/142 63/80/143 62/173/144
s 1
f 54/72/145 53/71/146 113/223/147 116/127/148
s 7
f 55/181/149 54/72/150 111/125/151 110/73/152
s 2
f 57/203/153 60/74/154 94/111/155 93/75/156
s 3
f 58/76/157 57/77/158 66/87/159 65/184/160
s 2
f 59/183/161 58/78/162 64/79/163 63/80/164
s 3
f 61/81/165 64/82/166 135/86/167 134/146/168
s 2
f 62/173/169 61/83/170 121/226/171 124/133/172
s 5
f 65/184/173 68/84/174 136/85/175 135/86/176
f 67/206/177 66/87/178 70/89/179 69/88/180
s 3
f 71/92/181 70/89/182 93/90/183 96/171/184
s 5
f 72/91/185 71/92/186 97/114/187 100/93/188
s 11
f 74/94/189 73/95/190 100/96/191 99/160/192
s 4
f 75/99/193 74/97/194 80/211/195 79/98/196
s 7
f 76/169/197 75/99/198 84/100/199 83/168/200
s 11
f 77/167/201 80/101/202 101/102/203 104/103/204
s 13
f 82/104/205 81/105/206 92/106/207 91/170/208
s 1
f 83/168/209 82/107/210 88/108/211 87/109/212
s 13
f 85/157/213 88/110/214 95/117/215 94/111/216
s 3
f 90/112/217 89/113/218 98/118/219 97/114/220
s 2
f 91/170/221 90/115/222 96/116/223 95/117/224
s 5
f 99/218/225 98/118/226 102/119/227 101/120/228
s 11
f 106/121/229 105/122/230 132/123/231 131/174/232
s 4
f 107/126/233 106/124/234 112/222/235 111/125/236
s 7
f 108/176/237 107/126/238 116/127/239 115/175/240
s 11
f 109/185/241 112/128/242 133/129/243 136/130/244
s 13
f 114/131/245 113/132/246 124/133/247 123/177/248
s 1
f 115/175/249 114/134/250 120/135/251 119/136/252
s 13
f 117/152/253 120/137/254 127/144/255 126/138/256
s 3
f 122/139/257 121/140/258 130/145/259 129/141/260
s 2
f 123/177/261 122/142/262 128/143/263 127/144/264
s 5
f 131/229/265 130/145/266 134/146/267 133/147/268
s 3
f 2/4/269 5/148/16 11/12/19 8/11/270
s 11
f 9/149/271 10/150/272 29/30/63 28/29/62
s 7
f 14/17/39 17/151/273 23/26/274 20/25/40
s 13
f 117/152/253 126/138/256 6/6/275 1/1/276
s 3
f 4/8/17 125/35/75 30/34/74 12/187/18
s 7
f 118/33/72 3/153/277 7/154/278 27/155/69
f 86/63/128 52/62/115 43/55/114 47/156/125
s 13
f 85/157/213 94/111/216 60/74/135 49/66/134
s 3
f 66/87/159 57/77/158 93/90/183 70/89/182
s 11
f 42/51/105 67/158/108 69/58/119 48/57/118
s 7
f 34/43/90 84/100/199 75/99/198 79/98/91
s 13
f 33/39/81 38/159/84 92/106/207 81/105/206
s 3
f 98/118/219 89/113/218 37/45/93 102/119/96
s 11
f 74/94/189 99/160/192 101/102/203 80/101/202
s 7
f 19/161/41 35/162/89 78/44/92 15/163/38
s 13
f 21/164/279 22/165/280 39/41/83 36/40/82
s 3
f 103/47/95 40/46/94 24/166/281 16/19/282
s 11
f 77/167/201 104/103/204 18/189/283 13/16/284
s 7
f 83/168/200 87/109/127 46/61/126 76/169/197
s 13
f 82/104/205 91/170/208 95/117/215 88/110/214
s 3
f 71/92/181 96/171/184 90/112/217 97/114/220
s 11
f 45/56/117 72/172/120 100/96/191 73/95/190
s 7
f 54/72/150 116/127/239 107/126/238 111/125/151
s 13
f 53/69/141 62/173/144 124/133/247 113/132/246
s 3
f 130/145/259 121/140/258 61/81/165 134/146/168
s 11
f 106/121/229 131/174/232 133/129/243 112/128/242
s 7
f 115/175/240 119/136/71 26/32/70 108/176/237
s 13
f 114/131/245 123/177/248 127/144/255 120/137/254
s 3
f 31/37/73 128/178/76 122/139/257 129/141/260
s 11
f 25/191/61 32/179/64 132/123/231 105/122/230
s 7
f 51/180/116 55/181/149 110/73/152 44/182/113
s 13
f 50/65/133 59/183/136 63/80/143 56/70/142
s 3
f 135/86/167 64/82/166 58/76/157 65/184/160
s 11
f 109/185/241 136/130/244 68/53/107 41/52/106
s off
f 1/3/285 2/4/286 3/153/287
s 2
f 4/8/13 5/148/8 6/186/7
s off
f 7/154/288 8/11/289 9/149/290
s 5
f 10/150/27 11/12/26 12/187/28
s 4
f 13/16/31 14/17/35 15/188/32
s off
f 16/22/291 17/151/292 18/189/293
s 1
f 19/18/50 20/25/54 21/164/51
s off
f 22/165/294 23/26/295 24/190/296
s 4
f 25/191/66 26/192/65 27/10/23 28/29/22
s 5
f 29/30/30 30/193/29 31/194/78 32/179/77
s 1
f 33/42/86 34/43/85 35/162/53 36/195/52
s 2
f 37/48/98 38/159/97 39/41/60 40/196/59
s 4
f 41/197/101 42/54/110 43/55/109 44/182/102
f 45/198/122 46/61/121 47/156/112 48/199/111
s 1
f 49/200/129 50/201/138 51/180/137 52/62/130
f 53/71/146 54/72/145 55/181/140 56/202/139
s 2
f 57/203/153 58/204/162 59/183/161 60/74/154
f 61/83/170 62/173/169 63/80/164 64/205/163
s 5
f 65/184/173 66/87/178 67/206/177 68/207/174
f 69/88/180 70/89/179 71/92/186 72/208/185
s 4
f 73/209/123 74/97/194 75/99/193 76/169/124
f 77/210/34 78/44/33 79/98/196 80/211/195
s 1
f 81/212/87 82/213/210 83/168/209 84/100/88
f 85/64/132 86/63/131 87/109/212 88/214/211
s 2
f 89/215/99 90/216/222 91/170/221 92/106/100
f 93/75/156 94/111/155 95/117/224 96/217/223
s 5
f 97/114/187 98/118/226 99/218/225 100/93/188
f 101/120/228 102/119/227 103/47/45 104/219/44
s 4
f 105/220/67 106/124/234 107/126/233 108/176/68
f 109/221/104 110/73/103 111/125/236 112/222/235
s 1
f 113/223/147 114/134/250 115/175/249 116/127/148
f 117/152/4 118/224/3 119/225/252 120/137/251
s 2
f 121/226/171 122/227/262 123/177/261 124/133/172
f 125/7/15 126/138/14 127/144/264 128/228/263
s 5
f 129/141/79 130/145/266 131/229/265 132/230/80
f 133/147/268 134/146/267 135/86/176 136/231/175
g default
v -7.854857 0.022064 -0.022901
v -7.862137 0.022064 -0.023063
v -7.869111 0.022064 -0.020968
v -7.875096 0.022064 -0.016820
v -7.879506 0.022064 -0.011025
v -7.881910 0.022064 -0.004152
v -7.882072 0.022064 0.003128
v -7.879977 0.022064 0.010102
v -7.875829 0.022064 0.016087
v -7.870034 0.022064 0.020497
v -7.863161 0.022064 0.022901
v -7.855881 0.022064 0.023063
v -7.848907 0.022064 0.020968
v -7.842922 0.022064 0.016820
v -7.838512 0.022064 0.011025
v -7.836108 0.022064 0.004152
v -7.835946 0.022064 -0.003128
v -7.838041 0.022064 -0.010102
v -7.842189 0.022064 -0.016087
v -7.847984 0.022064 -0.020497
v -7.854857 1.413489 -0.022901
v -7.862137 1.413489 -0.023063
v -7.869111 1.413489 -0.020968
v -7.875096 1.413489 -0.016820
v -7.879506 1.413489 -0.011025
v -7.881910 1.413489 -0.004152
v -7.882072 1.413489 0.003128
v -7.879977 1.413489 0.010102
v -7.875829 1.413489 0.016087
v -7.870034 1.413489 0.020497
v -7.863161 1.413489 0.022901
v -7.855881 1.413489 0.023063
v -7.848907 1.413489 0.020968
v -7.842922 1.413489 0.016820
v -7.838512 1.413489 0.011025
v -7.836108 1.413489 0.004152
v -7.835946 1.413489 -0.003128
v -7.838041 1.413489 -0.010102
v -7.842189 1.413489 -0.016087
v -7.847984 1.413489 -0.020497
v -7.859009 0.022064 0.000000
v -7.859009 1.413489 0.000000
vt 0.648603 0.107966
vt 0.626409 0.064408
vt 0.591842 0.029841
vt 0.548284 0.007647
vt 0.500000 -0.000000
vt 0.451716 0.007647
vt 0.408159 0.029841
vt 0.373591 0.064409
vt 0.351397 0.107966
vt 0.343750 0.156250
vt 0.351397 0.204534
vt 0.373591 0.248091
vt 0.408159 0.282659
vt 0.451716 0.304853
vt 0.500000 0.312500
vt 0.548284 0.304853
vt 0.591841 0.282659
vt 0.626409 0.248091
vt 0.648603 0.204534
vt 0.656250 0.156250
vt 0.375000 0.312500
vt 0.387500 0.312500
vt 0.400000 0.312500
vt 0.412500 0.312500
vt 0.425000 0.312500
vt 0.437500 0.312500
vt 0.450000 0.312500
vt 0.462500 0.312500
vt 0.475000 0.312500
vt 0.487500 0.312500
vt 0.500000 0.312500
vt 0.512500 0.312500
vt 0.525000 0.312500
vt 0.537500 0.312500
vt 0.550000 0.312500
vt 0.562500 0.312500
vt 0.575000 0.312500
vt 0.587500 0.312500
vt 0.600000 0.312500
vt 0.612500 0.312500
vt 0.625000 0.312500
vt 0.375000 0.688440
vt 0.387500 0.688440
vt 0.400000 0.688440
vt 0.412500 0.688440
vt 0.425000 0.688440
vt 0.437500 0.688440
vt 0.450000 0.688440
vt 0.462500 0.688440
vt 0.475000 0.688440
vt 0.487500 0.688440
vt 0.500000 0.688440
vt 0.512500 0.688440
vt 0.525000 0.688440
vt 0.537500 0.688440
vt 0.550000 0.688440
vt 0.562500 0.688440
vt 0.575000 0.688440
vt 0.587500 0.688440
vt 0.600000 0.688440
vt 0.612500 0.688440
vt 0.625000 0.688440
vt 0.648603 0.795466
vt 0.626409 0.751908
vt 0.591842 0.717341
vt 0.548284 0.695147
vt 0.500000 0.687500
vt 0.451716 0.695147
vt 0.408159 0.717341
vt 0.373591 0.751909
vt 0.351397 0.795466
vt 0.343750 0.843750
vt 0.351397 0.892034
vt 0.373591 0.935591
vt 0.408159 0.970159
vt 0.451716 0.992353
vt 0.500000 1.000000
vt 0.548284 0.992353
vt 0.591841 0.970159
vt 0.626409 0.935591
vt 0.648603 0.892034
vt 0.656250 0.843750
vt 0.500000 0.150000
vt 0.500000 0.837500
vn 0.178386 0.000000 -0.983961
vn -0.134407 0.000000 -0.990926
vn -0.134407 0.000000 -0.990926
vn 0.178386 0.000000 -0.983961
vn -0.434042 0.000000 -0.900893
vn -0.434042 0.000000 -0.900893
vn -0.691189 0.000000 -0.722674
vn -0.691189 0.000000 -0.722674
vn -0.880678 0.000000 -0.473715
vn -0.880678 0.000000 -0.473715
vn -0.983961 0.000000 -0.178385
vn -0.983961 0.000000 -0.178385
vn -0.990926 0.000000 0.134407
vn -0.990926 0.000000 0.134407
vn -0.900893 0.000000 0.434042
vn -0.900893 0.000000 0.434042
vn -0.722674 0.000000 0.691189
vn -0.722674 0.000000 0.691189
vn -0.473715 -0.000000 0.880678
vn -0.473715 -0.000000 0.880678
vn -0.178385 -0.000000 0.983961
vn -0.178385 -0.000000 0.983961
vn 0.134407 0.000000 0.990926
vn 0.134407 0.000000 0.990926
vn 0.434042 0.000000 0.900893
vn 0.434042 0.000000 0.900893
vn 0.691189 0.000000 0.722674
vn 0.691189 0.000000 0.722674
vn 0.880678 0.000000 0.473715
vn 0.880678 0.000000 0.473715
vn 0.983961 0.000000 0.178385
vn 0.983961 0.000000 0.178385
vn 0.990926 0.000000 -0.134407
vn 0.990926 0.000000 -0.134407
vn 0.900893 0.000000 -0.434041
vn 0.900893 0.000000 -0.434041
vn 0.722674 0.000000 -0.691189
vn 0.722674 0.000000 -0.691189
vn 0.473715 0.000000 -0.880678
vn 0.473715 0.000000 -0.880678
vn 0.000000 -1.000000 0.000000
vn 0.000000 -1.000000 0.000000
vn 0.000000 -1.000000 0.000000
vn 0.000000 -1.000000 0.000000
vn 0.000000 -1.000000 0.000000
vn 0.000000 -1.000000 0.000000
vn 0.000000 -1.000000 0.000000
vn 0.000000 -1.000000 0.000000
vn 0.000000 -1.000000 0.000000
vn 0.000000 -1.000000 0.000000
vn 0.000000 -1.000000 0.000000
vn 0.000000 -1.000000 0.000000
vn 0.000000 -1.000000 0.000000
vn 0.000000 -1.000000 0.000000
vn 0.000000 -1.000000 0.000000
vn 0.000000 -1.000000 0.000000
vn 0.000000 -1.000000 0.000000
vn 0.000000 -1.000000 0.000000
vn 0.000000 -1.000000 0.000000
vn 0.000000 -1.000000 0.000000
vn 0.000000 -1.000000 0.000000
vn -0.000004 1.000000 -0.000002
vn -0.000004 1.000000 -0.000002
vn -0.000000 1.000000 -0.000000
vn 0.000000 1.000000 0.000000
vn 0.000000 1.000000 0.000000
vn 0.000000 1.000000 0.000000
vn -0.000001 1.000000 -0.000001
vn 0.000001 1.000000 0.000001
vn 0.000002 1.000000 0.000001
vn 0.000000 1.000000 0.000000
vn 0.000000 1.000000 0.000000
vn 0.000000 1.000000 0.000000
vn 0.000000 1.000000 0.000000
vn 0.000000 1.000000 0.000000
vn 0.000000 1.000000 0.000000
vn 0.000000 1.000000 0.000000
vn 0.000001 1.000000 0.000001
vn 0.000001 1.000000 0.000001
vn 0.000000 1.000000 0.000000
vn 0.000000 1.000000 0.000000
vn 0.000000 1.000000 0.000000
s 1
g pCylinder21
usemtl initialShadingGroup
f 137/252/297 138/253/298 158/274/299 157/273/300
f 138/253/298 139/254/301 159/275/302 158/274/299
f 139/254/301 140/255/303 160/276/304 159/275/302
f 140/255/303 141/256/305 161/277/306 160/276/304
f 141/256/305 142/257/307 162/278/308 161/277/306
f 142/257/307 143/258/309 163/279/310 162/278/308
f 143/258/309 144/259/311 164/280/312 163/279/310
f 144/259/311 145/260/313 165/281/314 164/280/312
f 145/260/313 146/261/315 166/282/316 165/281/314
f 146/261/315 147/262/317 167/283/318 166/282/316
f 147/262/317 148/263/319 168/284/320 167/283/318
f 148/263/319 149/264/321 169/285/322 168/284/320
f 149/264/321 150/265/323 170/286/324 169/285/322
f 150/265/323 151/266/325 171/287/326 170/286/324
f 151/266/325 152/267/327 172/288/328 171/287/326
f 152/267/327 153/268/329 173/289/330 172/288/328
f 153/268/329 154/269/331 174/290/332 173/289/330
f 154/269/331 155/270/333 175/291/334 174/290/332
f 155/270/333 156/271/335 176/292/336 175/291/334
f 156/271/335 137/272/297 157/293/300 176/292/336
s 2
f 138/233/337 137/232/338 177/314/339
f 139/234/340 138/233/337 177/314/339
f 140/235/341 139/234/340 177/314/339
f 141/236/342 140/235/341 177/314/339
f 142/237/343 141/236/342 177/314/339
f 143/238/344 142/237/343 177/314/339
f 144/239/345 143/238/344 177/314/339
f 145/240/346 144/239/345 177/314/339
f 146/241/347 145/240/346 177/314/339
f 147/242/348 146/241/347 177/314/339
f 148/243/349 147/242/348 177/314/339
f 149/244/350 148/243/349 177/314/339
f 150/245/351 149/244/350 177/314/339
f 151/246/352 150/245/351 177/314/339
f 152/247/353 151/246/352 177/314/339
f 153/248/354 152/247/353 177/314/339
f 154/249/355 153/248/354 177/314/339
f 155/250/356 154/249/355 177/314/339
f 156/251/357 155/250/356 177/314/339
f 137/232/338 156/251/357 177/314/339
s 3
f 157/312/358 158/311/359 178/315/360
f 158/311/359 159/310/361 178/315/360
f 159/310/361 160/309/362 178/315/360
f 160/309/362 161/308/363 178/315/360
f 161/308/363 162/307/364 178/315/360
f 162/307/364 163/306/365 178/315/360
f 163/306/365 164/305/366 178/315/360
f 164/305/366 165/304/367 178/315/360
f 165/304/367 166/303/368 178/315/360
f 166/303/368 167/302/369 178/315/360
f 167/302/369 168/301/370 178/315/360
f 168/301/370 169/300/371 178/315/360
f 169/300/371 170/299/372 178/315/360
f 170/299/372 171/298/373 178/315/360
f 171/298/373 172/297/374 178/315/360
f 172/297/374 173/296/375 178/315/360
f 173/296/375 174/295/376 178/315/360
f 174/295/376 175/294/377 178/315/360
f 175/294/377 176/313/378 178/315/360
f 176/313/378 157/312/358 178/315/360
